%YAML 1.1
%TAG !u! tag:unity3d.com,2011:
--- !u!114 &200707772
MonoBehaviour:
  m_ObjectHideFlags: 0
  m_CorrespondingSourceObject: {fileID: 0}
  m_PrefabInstance: {fileID: 0}
  m_PrefabAsset: {fileID: 0}
  m_GameObject: {fileID: 2671568286841325562}
  m_Enabled: 1
  m_EditorHideFlags: 0
  m_Script: {fileID: 11500000, guid: acbfa130a6084490faea529c4960dff4, type: 3}
  m_Name: 
  m_EditorClassIdentifier: 
--- !u!1001 &8092828506432681410
PrefabInstance:
  m_ObjectHideFlags: 0
  serializedVersion: 2
  m_Modification:
    m_TransformParent: {fileID: 0}
    m_Modifications:
    - target: {fileID: 6151021632861467192, guid: 41e2ef31e7c4a4a178559d3214ca90c1,
        type: 3}
      propertyPath: m_Name
      value: ThrustableWall
      objectReference: {fileID: 0}
    - target: {fileID: 6151021632861467175, guid: 41e2ef31e7c4a4a178559d3214ca90c1,
        type: 3}
      propertyPath: m_LocalPosition.x
      value: 0.03
      objectReference: {fileID: 0}
    - target: {fileID: 6151021632861467175, guid: 41e2ef31e7c4a4a178559d3214ca90c1,
        type: 3}
      propertyPath: m_LocalPosition.y
      value: -4.22
      objectReference: {fileID: 0}
    - target: {fileID: 6151021632861467175, guid: 41e2ef31e7c4a4a178559d3214ca90c1,
        type: 3}
      propertyPath: m_LocalPosition.z
      value: -0.2113544
      objectReference: {fileID: 0}
    - target: {fileID: 6151021632861467175, guid: 41e2ef31e7c4a4a178559d3214ca90c1,
        type: 3}
      propertyPath: m_LocalRotation.x
      value: -0
      objectReference: {fileID: 0}
    - target: {fileID: 6151021632861467175, guid: 41e2ef31e7c4a4a178559d3214ca90c1,
        type: 3}
      propertyPath: m_LocalRotation.y
      value: -0
      objectReference: {fileID: 0}
    - target: {fileID: 6151021632861467175, guid: 41e2ef31e7c4a4a178559d3214ca90c1,
        type: 3}
      propertyPath: m_LocalRotation.z
      value: 0.7071068
      objectReference: {fileID: 0}
    - target: {fileID: 6151021632861467175, guid: 41e2ef31e7c4a4a178559d3214ca90c1,
        type: 3}
      propertyPath: m_LocalRotation.w
      value: 0.7071068
      objectReference: {fileID: 0}
    - target: {fileID: 6151021632861467175, guid: 41e2ef31e7c4a4a178559d3214ca90c1,
        type: 3}
      propertyPath: m_RootOrder
      value: 0
      objectReference: {fileID: 0}
    - target: {fileID: 6151021632861467175, guid: 41e2ef31e7c4a4a178559d3214ca90c1,
        type: 3}
      propertyPath: m_LocalEulerAnglesHint.x
      value: 0
      objectReference: {fileID: 0}
    - target: {fileID: 6151021632861467175, guid: 41e2ef31e7c4a4a178559d3214ca90c1,
        type: 3}
      propertyPath: m_LocalEulerAnglesHint.y
      value: 0
      objectReference: {fileID: 0}
    - target: {fileID: 6151021632861467175, guid: 41e2ef31e7c4a4a178559d3214ca90c1,
        type: 3}
      propertyPath: m_LocalEulerAnglesHint.z
      value: 90
      objectReference: {fileID: 0}
    - target: {fileID: 6151021632861467175, guid: 41e2ef31e7c4a4a178559d3214ca90c1,
        type: 3}
      propertyPath: m_LocalScale.x
      value: 1
      objectReference: {fileID: 0}
    - target: {fileID: 6151021632861467175, guid: 41e2ef31e7c4a4a178559d3214ca90c1,
        type: 3}
      propertyPath: m_LocalScale.y
      value: 11.694004
      objectReference: {fileID: 0}
    - target: {fileID: 6151021632861467174, guid: 41e2ef31e7c4a4a178559d3214ca90c1,
        type: 3}
      propertyPath: m_Color.r
      value: 0.25434187
      objectReference: {fileID: 0}
    - target: {fileID: 6151021632861467174, guid: 41e2ef31e7c4a4a178559d3214ca90c1,
        type: 3}
      propertyPath: m_Color.g
      value: 0.18783373
      objectReference: {fileID: 0}
    - target: {fileID: 6151021632861467174, guid: 41e2ef31e7c4a4a178559d3214ca90c1,
        type: 3}
      propertyPath: m_Color.b
      value: 0.6320754
      objectReference: {fileID: 0}
    m_RemovedComponents: []
  m_SourcePrefab: {fileID: 100100000, guid: 41e2ef31e7c4a4a178559d3214ca90c1, type: 3}
--- !u!1 &2671568286841325562 stripped
GameObject:
  m_CorrespondingSourceObject: {fileID: 6151021632861467192, guid: 41e2ef31e7c4a4a178559d3214ca90c1,
    type: 3}
  m_PrefabInstance: {fileID: 8092828506432681410}
  m_PrefabAsset: {fileID: 0}
